{"route":"apps/jira/projects/internal-support","count":88,"pageSize":50,"pageCount":2,"pages":[{"page":1,"count":50,"path":"/seed/apps/jira/projects/internal-support/page-0001.json"},{"page":2,"count":38,"path":"/seed/apps/jira/projects/internal-support/page-0002.json"}]}
