{"route":"apps/slack/channels/people-ops","count":84,"pageSize":50,"pageCount":2,"pages":[{"page":1,"count":50,"path":"/seed/apps/slack/channels/people-ops/page-0001.json"},{"page":2,"count":34,"path":"/seed/apps/slack/channels/people-ops/page-0002.json"}]}
