{"route":"apps/confluence/spaces/applied-ml-and-evals","count":51,"pageSize":50,"pageCount":2,"pages":[{"page":1,"count":50,"path":"/seed/apps/confluence/spaces/applied-ml-and-evals/page-0001.json"},{"page":2,"count":1,"path":"/seed/apps/confluence/spaces/applied-ml-and-evals/page-0002.json"}]}
