{"route":"apps/slack/channels/marketing","count":92,"pageSize":50,"pageCount":2,"pages":[{"page":1,"count":50,"path":"/seed/apps/slack/channels/marketing/page-0001.json"},{"page":2,"count":42,"path":"/seed/apps/slack/channels/marketing/page-0002.json"}]}
