{"route":"apps/slack/channels/product","count":109,"pageSize":50,"pageCount":3,"pages":[{"page":1,"count":50,"path":"/seed/apps/slack/channels/product/page-0001.json"},{"page":2,"count":50,"path":"/seed/apps/slack/channels/product/page-0002.json"},{"page":3,"count":9,"path":"/seed/apps/slack/channels/product/page-0003.json"}]}
