{"route":"users/ava-chen/confluence","count":77,"pageSize":50,"pageCount":2,"pages":[{"page":1,"count":50,"path":"/seed/users/ava-chen/confluence/page-0001.json"},{"page":2,"count":27,"path":"/seed/users/ava-chen/confluence/page-0002.json"}]}
