{"route":"apps/hubspot/stages/procurement","count":100,"pageSize":50,"pageCount":2,"pages":[{"page":1,"count":50,"path":"/seed/apps/hubspot/stages/procurement/page-0001.json"},{"page":2,"count":50,"path":"/seed/apps/hubspot/stages/procurement/page-0002.json"}]}
