{"route":"apps/slack/channels/eng-platform","count":180,"pageSize":50,"pageCount":4,"pages":[{"page":1,"count":50,"path":"/seed/apps/slack/channels/eng-platform/page-0001.json"},{"page":2,"count":50,"path":"/seed/apps/slack/channels/eng-platform/page-0002.json"},{"page":3,"count":50,"path":"/seed/apps/slack/channels/eng-platform/page-0003.json"},{"page":4,"count":30,"path":"/seed/apps/slack/channels/eng-platform/page-0004.json"}]}
