{"route":"apps/confluence/spaces/eng-platform","count":133,"pageSize":50,"pageCount":3,"pages":[{"page":1,"count":50,"path":"/seed/apps/confluence/spaces/eng-platform/page-0001.json"},{"page":2,"count":50,"path":"/seed/apps/confluence/spaces/eng-platform/page-0002.json"},{"page":3,"count":33,"path":"/seed/apps/confluence/spaces/eng-platform/page-0003.json"}]}
