{"route":"apps/confluence/spaces/eng-serving-runtime","count":103,"pageSize":50,"pageCount":3,"pages":[{"page":1,"count":50,"path":"/seed/apps/confluence/spaces/eng-serving-runtime/page-0001.json"},{"page":2,"count":50,"path":"/seed/apps/confluence/spaces/eng-serving-runtime/page-0002.json"},{"page":3,"count":3,"path":"/seed/apps/confluence/spaces/eng-serving-runtime/page-0003.json"}]}
