{"route":"users/rafael-mendes/linear","count":66,"pageSize":50,"pageCount":2,"pages":[{"page":1,"count":50,"path":"/seed/users/rafael-mendes/linear/page-0001.json"},{"page":2,"count":16,"path":"/seed/users/rafael-mendes/linear/page-0002.json"}]}
