{"route":"users/marcus-lin/linear","count":65,"pageSize":50,"pageCount":2,"pages":[{"page":1,"count":50,"path":"/seed/users/marcus-lin/linear/page-0001.json"},{"page":2,"count":15,"path":"/seed/users/marcus-lin/linear/page-0002.json"}]}
