{"route":"apps/slack/channels/eng-releases","count":73,"pageSize":50,"pageCount":2,"pages":[{"page":1,"count":50,"path":"/seed/apps/slack/channels/eng-releases/page-0001.json"},{"page":2,"count":23,"path":"/seed/apps/slack/channels/eng-releases/page-0002.json"}]}
