{"route":"apps/confluence/spaces/oncall-and-incident-response","count":89,"pageSize":50,"pageCount":2,"pages":[{"page":1,"count":50,"path":"/seed/apps/confluence/spaces/oncall-and-incident-response/page-0001.json"},{"page":2,"count":39,"path":"/seed/apps/confluence/spaces/oncall-and-incident-response/page-0002.json"}]}
