{"route":"apps/google-drive/areas/shared-drives","count":100,"pageSize":50,"pageCount":2,"pages":[{"page":1,"count":50,"path":"/seed/apps/google-drive/areas/shared-drives/page-0001.json"},{"page":2,"count":50,"path":"/seed/apps/google-drive/areas/shared-drives/page-0002.json"}]}
