{"route":"users/ava-chen/fireflies","count":101,"pageSize":50,"pageCount":3,"pages":[{"page":1,"count":50,"path":"/seed/users/ava-chen/fireflies/page-0001.json"},{"page":2,"count":50,"path":"/seed/users/ava-chen/fireflies/page-0002.json"},{"page":3,"count":1,"path":"/seed/users/ava-chen/fireflies/page-0003.json"}]}
