{"route":"apps/slack/channels/incidents","count":121,"pageSize":50,"pageCount":3,"pages":[{"page":1,"count":50,"path":"/seed/apps/slack/channels/incidents/page-0001.json"},{"page":2,"count":50,"path":"/seed/apps/slack/channels/incidents/page-0002.json"},{"page":3,"count":21,"path":"/seed/apps/slack/channels/incidents/page-0003.json"}]}
