{"route":"users/ethan-park/github","count":120,"pageSize":50,"pageCount":3,"pages":[{"page":1,"count":50,"path":"/seed/users/ethan-park/github/page-0001.json"},{"page":2,"count":50,"path":"/seed/users/ethan-park/github/page-0002.json"},{"page":3,"count":20,"path":"/seed/users/ethan-park/github/page-0003.json"}]}
