{"route":"apps/confluence/spaces/eng-infra","count":72,"pageSize":50,"pageCount":2,"pages":[{"page":1,"count":50,"path":"/seed/apps/confluence/spaces/eng-infra/page-0001.json"},{"page":2,"count":22,"path":"/seed/apps/confluence/spaces/eng-infra/page-0002.json"}]}
