{"route":"apps/slack/channels/eng-security","count":64,"pageSize":50,"pageCount":2,"pages":[{"page":1,"count":50,"path":"/seed/apps/slack/channels/eng-security/page-0001.json"},{"page":2,"count":14,"path":"/seed/apps/slack/channels/eng-security/page-0002.json"}]}
