{"route":"users/mateo-alvarez/slack","count":105,"pageSize":50,"pageCount":3,"pages":[{"page":1,"count":50,"path":"/seed/users/mateo-alvarez/slack/page-0001.json"},{"page":2,"count":50,"path":"/seed/users/mateo-alvarez/slack/page-0002.json"},{"page":3,"count":5,"path":"/seed/users/mateo-alvarez/slack/page-0003.json"}]}
