{"route":"apps/gmail/threads","count":2000,"pageSize":50,"pageCount":40,"pages":[{"page":1,"count":50,"path":"/seed/apps/gmail/threads/page-0001.json"},{"page":2,"count":50,"path":"/seed/apps/gmail/threads/page-0002.json"},{"page":3,"count":50,"path":"/seed/apps/gmail/threads/page-0003.json"},{"page":4,"count":50,"path":"/seed/apps/gmail/threads/page-0004.json"},{"page":5,"count":50,"path":"/seed/apps/gmail/threads/page-0005.json"},{"page":6,"count":50,"path":"/seed/apps/gmail/threads/page-0006.json"},{"page":7,"count":50,"path":"/seed/apps/gmail/threads/page-0007.json"},{"page":8,"count":50,"path":"/seed/apps/gmail/threads/page-0008.json"},{"page":9,"count":50,"path":"/seed/apps/gmail/threads/page-0009.json"},{"page":10,"count":50,"path":"/seed/apps/gmail/threads/page-0010.json"},{"page":11,"count":50,"path":"/seed/apps/gmail/threads/page-0011.json"},{"page":12,"count":50,"path":"/seed/apps/gmail/threads/page-0012.json"},{"page":13,"count":50,"path":"/seed/apps/gmail/threads/page-0013.json"},{"page":14,"count":50,"path":"/seed/apps/gmail/threads/page-0014.json"},{"page":15,"count":50,"path":"/seed/apps/gmail/threads/page-0015.json"},{"page":16,"count":50,"path":"/seed/apps/gmail/threads/page-0016.json"},{"page":17,"count":50,"path":"/seed/apps/gmail/threads/page-0017.json"},{"page":18,"count":50,"path":"/seed/apps/gmail/threads/page-0018.json"},{"page":19,"count":50,"path":"/seed/apps/gmail/threads/page-0019.json"},{"page":20,"count":50,"path":"/seed/apps/gmail/threads/page-0020.json"},{"page":21,"count":50,"path":"/seed/apps/gmail/threads/page-0021.json"},{"page":22,"count":50,"path":"/seed/apps/gmail/threads/page-0022.json"},{"page":23,"count":50,"path":"/seed/apps/gmail/threads/page-0023.json"},{"page":24,"count":50,"path":"/seed/apps/gmail/threads/page-0024.json"},{"page":25,"count":50,"path":"/seed/apps/gmail/threads/page-0025.json"},{"page":26,"count":50,"path":"/seed/apps/gmail/threads/page-0026.json"},{"page":27,"count":50,"path":"/seed/apps/gmail/threads/page-0027.json"},{"page":28,"count":50,"path":"/seed/apps/gmail/threads/page-0028.json"},{"page":29,"count":50,"path":"/seed/apps/gmail/threads/page-0029.json"},{"page":30,"count":50,"path":"/seed/apps/gmail/threads/page-0030.json"},{"page":31,"count":50,"path":"/seed/apps/gmail/threads/page-0031.json"},{"page":32,"count":50,"path":"/seed/apps/gmail/threads/page-0032.json"},{"page":33,"count":50,"path":"/seed/apps/gmail/threads/page-0033.json"},{"page":34,"count":50,"path":"/seed/apps/gmail/threads/page-0034.json"},{"page":35,"count":50,"path":"/seed/apps/gmail/threads/page-0035.json"},{"page":36,"count":50,"path":"/seed/apps/gmail/threads/page-0036.json"},{"page":37,"count":50,"path":"/seed/apps/gmail/threads/page-0037.json"},{"page":38,"count":50,"path":"/seed/apps/gmail/threads/page-0038.json"},{"page":39,"count":50,"path":"/seed/apps/gmail/threads/page-0039.json"},{"page":40,"count":50,"path":"/seed/apps/gmail/threads/page-0040.json"}]}
