{"route":"users/logan-wright/linear","count":59,"pageSize":50,"pageCount":2,"pages":[{"page":1,"count":50,"path":"/seed/users/logan-wright/linear/page-0001.json"},{"page":2,"count":9,"path":"/seed/users/logan-wright/linear/page-0002.json"}]}
