{"route":"users/priya-natarajan/gmail","count":200,"pageSize":50,"pageCount":4,"pages":[{"page":1,"count":50,"path":"/seed/users/priya-natarajan/gmail/page-0001.json"},{"page":2,"count":50,"path":"/seed/users/priya-natarajan/gmail/page-0002.json"},{"page":3,"count":50,"path":"/seed/users/priya-natarajan/gmail/page-0003.json"},{"page":4,"count":50,"path":"/seed/users/priya-natarajan/gmail/page-0004.json"}]}
