{"route":"apps/confluence/spaces/product-docs","count":107,"pageSize":50,"pageCount":3,"pages":[{"page":1,"count":50,"path":"/seed/apps/confluence/spaces/product-docs/page-0001.json"},{"page":2,"count":50,"path":"/seed/apps/confluence/spaces/product-docs/page-0002.json"},{"page":3,"count":7,"path":"/seed/apps/confluence/spaces/product-docs/page-0003.json"}]}
