{"route":"apps/confluence/spaces/eng-private-deployments","count":60,"pageSize":50,"pageCount":2,"pages":[{"page":1,"count":50,"path":"/seed/apps/confluence/spaces/eng-private-deployments/page-0001.json"},{"page":2,"count":10,"path":"/seed/apps/confluence/spaces/eng-private-deployments/page-0002.json"}]}
