{"route":"apps/confluence/spaces/security-and-compliance","count":93,"pageSize":50,"pageCount":2,"pages":[{"page":1,"count":50,"path":"/seed/apps/confluence/spaces/security-and-compliance/page-0001.json"},{"page":2,"count":43,"path":"/seed/apps/confluence/spaces/security-and-compliance/page-0002.json"}]}
