{"route":"apps/confluence/spaces/customer-success-and-support","count":58,"pageSize":50,"pageCount":2,"pages":[{"page":1,"count":50,"path":"/seed/apps/confluence/spaces/customer-success-and-support/page-0001.json"},{"page":2,"count":8,"path":"/seed/apps/confluence/spaces/customer-success-and-support/page-0002.json"}]}
