{
  "datasetName": "redwood-corp-os-corpus",
  "generatedAt": "2026-07-03T13:03:09.784886+00:00",
  "pageSize": 2000,
  "totalEvents": 10495,
  "apps": {
    "confluence": {
      "count": 500,
      "pageSize": 2000,
      "pageCount": 1,
      "route": "/corp-os-data/confluence/",
      "pages": [
        {
          "page": 1,
          "count": 500,
          "url": "/corp-os-data/confluence/page-0001.json"
        }
      ]
    },
    "fireflies": {
      "count": 300,
      "pageSize": 2000,
      "pageCount": 1,
      "route": "/corp-os-data/fireflies/",
      "pages": [
        {
          "page": 1,
          "count": 300,
          "url": "/corp-os-data/fireflies/page-0001.json"
        }
      ]
    },
    "github": {
      "count": 800,
      "pageSize": 2000,
      "pageCount": 1,
      "route": "/corp-os-data/github/",
      "pages": [
        {
          "page": 1,
          "count": 800,
          "url": "/corp-os-data/github/page-0001.json"
        }
      ]
    },
    "gmail": {
      "count": 2412,
      "pageSize": 2000,
      "pageCount": 2,
      "route": "/corp-os-data/gmail/",
      "pages": [
        {
          "page": 1,
          "count": 2000,
          "url": "/corp-os-data/gmail/page-0001.json"
        },
        {
          "page": 2,
          "count": 412,
          "url": "/corp-os-data/gmail/page-0002.json"
        }
      ]
    },
    "google-drive": {
      "count": 1500,
      "pageSize": 2000,
      "pageCount": 1,
      "route": "/corp-os-data/google-drive/",
      "pages": [
        {
          "page": 1,
          "count": 1500,
          "url": "/corp-os-data/google-drive/page-0001.json"
        }
      ]
    },
    "hubspot": {
      "count": 800,
      "pageSize": 2000,
      "pageCount": 1,
      "route": "/corp-os-data/hubspot/",
      "pages": [
        {
          "page": 1,
          "count": 800,
          "url": "/corp-os-data/hubspot/page-0001.json"
        }
      ]
    },
    "jira": {
      "count": 600,
      "pageSize": 2000,
      "pageCount": 1,
      "route": "/corp-os-data/jira/",
      "pages": [
        {
          "page": 1,
          "count": 600,
          "url": "/corp-os-data/jira/page-0001.json"
        }
      ]
    },
    "linear": {
      "count": 2000,
      "pageSize": 2000,
      "pageCount": 1,
      "route": "/corp-os-data/linear/",
      "pages": [
        {
          "page": 1,
          "count": 2000,
          "url": "/corp-os-data/linear/page-0001.json"
        }
      ]
    },
    "slack": {
      "count": 1583,
      "pageSize": 2000,
      "pageCount": 1,
      "route": "/corp-os-data/slack/",
      "pages": [
        {
          "page": 1,
          "count": 1583,
          "url": "/corp-os-data/slack/page-0001.json"
        }
      ]
    }
  }
}