{"route":"apps/slack/channels/architecture","count":52,"pageSize":50,"pageCount":2,"pages":[{"page":1,"count":50,"path":"/seed/apps/slack/channels/architecture/page-0001.json"},{"page":2,"count":2,"path":"/seed/apps/slack/channels/architecture/page-0002.json"}]}
