{"route":"users/ethan-park/google-drive","count":117,"pageSize":50,"pageCount":3,"pages":[{"page":1,"count":50,"path":"/seed/users/ethan-park/google-drive/page-0001.json"},{"page":2,"count":50,"path":"/seed/users/ethan-park/google-drive/page-0002.json"},{"page":3,"count":17,"path":"/seed/users/ethan-park/google-drive/page-0003.json"}]}
