{"route":"users/jordan-blake/slack","count":76,"pageSize":50,"pageCount":2,"pages":[{"page":1,"count":50,"path":"/seed/users/jordan-blake/slack/page-0001.json"},{"page":2,"count":26,"path":"/seed/users/jordan-blake/slack/page-0002.json"}]}
