{"route":"apps/slack/channels/sales","count":63,"pageSize":50,"pageCount":2,"pages":[{"page":1,"count":50,"path":"/seed/apps/slack/channels/sales/page-0001.json"},{"page":2,"count":13,"path":"/seed/apps/slack/channels/sales/page-0002.json"}]}
