{"route":"users/priya-natarajan/confluence","count":97,"pageSize":50,"pageCount":2,"pages":[{"page":1,"count":50,"path":"/seed/users/priya-natarajan/confluence/page-0001.json"},{"page":2,"count":47,"path":"/seed/users/priya-natarajan/confluence/page-0002.json"}]}
