{"route":"users/priya-natarajan/fireflies","count":77,"pageSize":50,"pageCount":2,"pages":[{"page":1,"count":50,"path":"/seed/users/priya-natarajan/fireflies/page-0001.json"},{"page":2,"count":27,"path":"/seed/users/priya-natarajan/fireflies/page-0002.json"}]}
