{"route":"apps/github/repos/redwood","count":130,"pageSize":50,"pageCount":3,"pages":[{"page":1,"count":50,"path":"/seed/apps/github/repos/redwood/page-0001.json"},{"page":2,"count":50,"path":"/seed/apps/github/repos/redwood/page-0002.json"},{"page":3,"count":30,"path":"/seed/apps/github/repos/redwood/page-0003.json"}]}
