{"route":"apps/linear/teams/product-management","count":100,"pageSize":50,"pageCount":2,"pages":[{"page":1,"count":50,"path":"/seed/apps/linear/teams/product-management/page-0001.json"},{"page":2,"count":50,"path":"/seed/apps/linear/teams/product-management/page-0002.json"}]}
