{"route":"users/sean-gallagher/slack","count":120,"pageSize":50,"pageCount":3,"pages":[{"page":1,"count":50,"path":"/seed/users/sean-gallagher/slack/page-0001.json"},{"page":2,"count":50,"path":"/seed/users/sean-gallagher/slack/page-0002.json"},{"page":3,"count":20,"path":"/seed/users/sean-gallagher/slack/page-0003.json"}]}
