{"route":"apps/slack/channels/eng-infra","count":53,"pageSize":50,"pageCount":2,"pages":[{"page":1,"count":50,"path":"/seed/apps/slack/channels/eng-infra/page-0001.json"},{"page":2,"count":3,"path":"/seed/apps/slack/channels/eng-infra/page-0002.json"}]}
