{"route":"users/jordan-blake/fireflies","count":115,"pageSize":50,"pageCount":3,"pages":[{"page":1,"count":50,"path":"/seed/users/jordan-blake/fireflies/page-0001.json"},{"page":2,"count":50,"path":"/seed/users/jordan-blake/fireflies/page-0002.json"},{"page":3,"count":15,"path":"/seed/users/jordan-blake/fireflies/page-0003.json"}]}
