{"route":"users/priya-natarajan/google-drive","count":120,"pageSize":50,"pageCount":3,"pages":[{"page":1,"count":50,"path":"/seed/users/priya-natarajan/google-drive/page-0001.json"},{"page":2,"count":50,"path":"/seed/users/priya-natarajan/google-drive/page-0002.json"},{"page":3,"count":20,"path":"/seed/users/priya-natarajan/google-drive/page-0003.json"}]}
